
{"products":[
    {
      "id": 1,
      "name": "Carmona",
      "image": "https://www.cocaflora.com/userdata/public/gfx/7112/Carmona-kaskada.jpg",
      "price": 380
    },
    {
      "id": 2,
      "name": "Buxus",
      "image": "https://www.cocaflora.com/userdata/public/gfx/7109/Carmona.jpg",
      "price": 48
    },
    {
      "id": 3,
      "name": "Cornus",
      "image": "https://www.cocaflora.com/userdata/public/gfx/7111/Carmona---przepiekna-40cm.jpg",
      "price": 425
    }
]}